{
    "_id":OBJECT_ID,
    "c_departamento":MI_CODIGO_DEP,
    "nombre":NOMBRE_DEP,
    "empoleados":[ARRAY DE MI CODIGO DE EMPLEADOS
        {
            "code":MI CODIGO DE EMP,
            "desda":FECHA INI,
            "hasta":FECHA FIN
        }
    ]
}